<?xml version="1.0" encoding="UTF-8" standalone="no"?>
<!DOCTYPE svg PUBLIC "-//W3C//DTD SVG 1.0//EN" "http://www.w3.org/TR/2001/REC-SVG-20010904/DTD/svg10.dtd">
<!-- Generated by Microsoft Visio 11.0, SVG Export, v1.0 Decimation.svg Decimation -->
<svg xmlns="http://www.w3.org/2000/svg" xmlns:xlink="http://www.w3.org/1999/xlink" xmlns:ev="http://www.w3.org/2001/xml-events"
		xmlns:v="http://schemas.microsoft.com/visio/2003/SVGExtensions/" width="7in" height="7in" viewBox="10 50 200 200"
		xml:space="preserve" color-interpolation-filters="sRGB" class="st12">
	<v:documentProperties v:langID="1033" v:viewMarkup="false">
		<v:userDefs>
			<v:ud v:nameU="msvNoAutoConnect" v:val="VT0(1):26"/>
			<v:ud v:nameU="msvNoApplyDataGraphicAfterLink" v:val="VT0(1):5"/>
			<v:ud v:nameU="msvNoSubprocess" v:prompt="" v:val="VT0(1):26"/>
		</v:userDefs>
	</v:documentProperties>

	<style type="text/css">
	<![CDATA[
		.st1 {fill:#e8eef7;stroke:#000000;stroke-linecap:round;stroke-linejoin:round;stroke-width:0.24}
		.st2 {fill:#000000;font-family:Calibri;font-size:0.666664em}
		.st3 {fill:#cdcdcd;font-family:Calibri;font-size:3em;font-weight:bold}
		.st4 {stroke:#ff0000;stroke-linecap:round;stroke-linejoin:round;stroke-width:0.75}
		.st5 {stroke:#f2dcda;stroke-linecap:round;stroke-linejoin:round;stroke-width:0.75}
		.st6 {fill:none;stroke:none;stroke-linecap:round;stroke-linejoin:round;stroke-width:0.75}
		.st7 {fill:#000000;font-family:Calibri;font-size:0.75em;font-weight:bold}
		.st8 {stroke:#000000;stroke-linecap:round;stroke-linejoin:round;stroke-width:0.75}
		.st9 {fill:#000000;font-family:Calibri;font-size:0.333344em}
		.st10 {fill:#e8eef7;stroke:#c05046;stroke-linecap:butt;stroke-width:1}
		.st11 {fill:#000000;font-family:Calibri;font-size:0.75em}
		.st12 {fill:none;fill-rule:evenodd;font-size:12px;overflow:visible;stroke-linecap:square;stroke-miterlimit:3}
	]]>
	</style>

	<g v:mID="8" v:index="7" v:groupContext="foregroundPage">
		<v:userDefs>
			<v:ud v:nameU="UMLPageGUID" v:prompt="" v:val="VT14({97A8A248-2C62-4256-8B20-27377850F1F6}):41"/>
		</v:userDefs>
		<title>Decimation</title>
		<v:pageProperties v:drawingScale="1" v:pageScale="1" v:drawingUnits="0" v:shadowOffsetX="9" v:shadowOffsetY="-9"/>
		<g id="shape3-1" v:mID="3" v:groupContext="shape" transform="translate(57.06,-695.52)">
			<title>Rectangle</title>
			<desc>View</desc>
			<v:userDefs>
				<v:ud v:nameU="visVersion" v:val="VT0(14):26"/>
			</v:userDefs>
			<v:textBlock v:margins="rect(4,4,4,4)" v:tabSpace="42.5197" v:verticalAlign="0"/>
			<v:textRect cx="24.48" cy="773.64" width="48.96" height="36.72"/>
			<rect x="0" y="755.28" width="48.96" height="36.72" class="st1"/>
			<text x="16.44" y="766.48" class="st2" v:langID="1033"><v:paragraph v:horizAlign="1"/><v:tabList/>View</text>		</g>
		<g id="shape1-4" v:mID="1" v:groupContext="shape" transform="translate(182.335,-792)">
			<title>Watermark Title</title>
			<desc>Static Structure</desc>
			<v:userDefs>
				<v:ud v:nameU="msvNoAutoSize" v:prompt="" v:val="VT0(1):26"/>
			</v:userDefs>
			<v:textBlock v:margins="rect(4,4,4,4)"/>
			<v:textRect cx="123.665" cy="766.398" width="247.33" height="51.2036"/>
			<text x="8.07" y="777.2" class="st3" v:langID="1033"><v:paragraph v:horizAlign="1"/><v:tabList/>Static Structure</text>		</g>
		<g id="shape9-6" v:mID="9" v:groupContext="shape" transform="translate(326.191,-662.396) rotate(20.0538)">
			<title>Sheet.9</title>
			<path d="M0 784.86 C-0.07 783.54 -0.04 782.44 0.29 781.87 C0.81 780.99 2.08 781.44 3 782.57 C4.17 784.03 4.76 786.63
						 6.14 789.09 C6.98 790.58 8.11 792.02 8.68 791.84 C9.44 791.6 9.21 788.47 8.95 787.53 C8.82 787.09 8.69 787.12
						 9.04 787.57 C9.46 788.12 10.6 789.27 11.16 789.4 C11.99 789.6 11.61 787.59 11.81 785.72 C11.99 784.09 12.61
						 782.56 13.15 782.24 C14.28 781.57 15 786.38 16.12 789.13 C17.61 792.75 19.81 792.77 20.23 790.31 C20.54
						 788.51 19.89 785.37 19.22 781.86 C18.93 780.35 18.63 778.76 18.66 778.24 C18.68 777.87 18.86 778.02 19.12
						 778.45 C19.77 779.54 20.9 782.36 21.52 785.01 C21.85 786.44 22.03 787.81 22.8 788.53 C23.2 788.9 23.76 789.09
						 24.11 788.97 C24.88 788.7 24.69 786.95 24.14 785.05 C24.12 784.99 24.1 784.92 24.08 784.86" class="st4"/>
		</g>
		<g id="shape12-9" v:mID="12" v:groupContext="shape" transform="translate(-59.4456,-686.988) rotate(-10.2436)">
			<title>Sheet.12</title>
			<path d="M0 782.34 C0.17 782.69 0.91 781.81 1.28 781.67 C1.69 781.52 1.66 782.27 1.83 782.65 C1.97 782.94 2.22 783 2.54
						 782.78 C3.38 782.19 4.69 779.61 5.51 777.68 C6.16 776.16 6.51 775.04 6.67 775.33 C6.92 775.78 6.66 779.79
						 6.49 783.2 C6.4 785.07 6.33 786.76 6.67 787.47 C6.98 788.12 7.62 787.96 8.3 787.33 C8.96 786.72 9.66 785.69
						 10.03 783.84 C10.18 783.12 10.28 782.27 10.31 782.28 C10.35 782.29 10.33 783.01 10.46 783.48 C10.73 784.44
						 11.63 784.31 12.35 784.4 C12.96 784.48 13.44 784.71 13.9 784.68 C15.64 784.58 17.21 780.86 18.49 777.1 C19.28
						 774.81 19.96 772.51 20.21 772.07 C20.81 771.01 18.94 780.67 18.13 785.59 C17.87 787.14 17.72 788.22 17.36
						 789.85 C17.19 790.61 16.97 791.49 17 791.83 C17.05 792.38 17.73 791.52 18.3 790.75 C19.23 789.48 19.86 788.44
						 20.5 786.24 C20.88 784.92 21.27 783.18 21.33 783.25 C21.39 783.31 21.22 784.7 21.45 785.02 C21.72 785.39
						 22.5 784.4 23.01 784.5 C23.36 784.57 23.57 785.17 23.87 785.39 C24.25 785.67 24.75 785.37 25.21 784.9 C25.8
						 784.29 26.32 783.39 26.77 782.34" class="st4"/>
		</g>
		<g id="shape4-12" v:mID="4" v:groupContext="shape" transform="translate(202.35,-690.421) rotate(7.14425)">
			<title>Sheet.4</title>
			<path d="M0 774.55 C0.21 772.42 0.05 769.84 -0.15 767.6 C-0.25 766.34 -0.37 765.19 -0.24 763.98 C-0.11 762.8 0.26 761.55
						 0.46 760.84 C0.69 760.01 0.69 759.92 0.74 760.23 C1.05 761.85 3.04 774.61 4.13 782.01 C4.45 784.23 4.7 785.96
						 5.21 788.33 C5.51 789.72 5.91 791.33 6.16 791.84 C6.59 792.71 6.59 790.32 6.43 788.25 C6.19 785.07 5.57
						 782.64 4.81 778.22 C4.39 775.77 3.93 772.7 4.11 772.58 C4.25 772.48 4.8 774.31 5.3 776.35 C5.61 777.59 5.9
						 778.9 5.9 778.81 C5.91 778.71 5.57 776.88 5.72 776.73 C5.83 776.61 6.28 777.62 6.57 777.78 C6.89 777.96
						 7.02 777.15 7.13 776.99 C7.23 776.81 7.3 777.38 7.45 777.24 C7.56 777.13 7.71 776.61 8.11 776.72 C8.41 776.81
						 8.86 777.28 9.01 776.97 C9.11 776.75 9.06 776.12 9.25 776 C9.4 775.89 9.71 776.13 9.93 776.2 C10.78 776.48
						 10.17 774.27 9.99 773.22 C9.79 772.07 10.1 772.32 10.28 773.18 C10.56 774.52 10.53 777.34 10.84 780 C11.13
						 782.48 11.72 784.82 12.09 785.29 C12.9 786.33 12.6 778.09 11.93 771.3 C11.35 765.49 10.5 760.74 10.57 760.45
						 C10.67 760.01 12.84 769.58 14.28 778.49 C14.81 781.75 15.23 784.92 15.66 784.84 C16.08 784.76 16.51 781.36
						 15.97 778.06 C15.76 776.78 15.41 775.52 15.64 775.41 C15.76 775.35 16.07 775.66 16.4 775.68 C17.22 775.74
						 18.14 774.01 19.59 774.55" class="st5"/>
		</g>
		<g id="shape6-15" v:mID="6" v:groupContext="shape" transform="translate(-669.858,-238.037) rotate(-66.0215)">
			<title>Sheet.6</title>
			<path d="M0 791.24 C1.16 792.75 5.64 791.64 8.86 791.24" class="st5"/>
		</g>
		<g id="shape2-18" v:mID="2" v:groupContext="shape" transform="translate(38.52,-685.44)">
			<title>Sheet.2</title>
			<desc>Boundary Decimation</desc>
			<v:textBlock v:margins="rect(4,4,4,4)"/>
			<v:textRect cx="45" cy="788.4" width="90" height="7.2"/>
			<rect x="0" y="784.8" width="90" height="7.2" class="st6"/>
			<text x="4.37" y="791.1" class="st7" v:langID="1033"><v:paragraph v:horizAlign="1"/><v:tabList/>Boundary Decimation</text>		</g>
		<g id="shape5-21" v:mID="5" v:groupContext="shape" transform="translate(231.454,-623.149) rotate(13.2405)">
			<title>Sheet.5</title>
			<path d="M0 777.92 C0.21 777.13 0.74 773.07 1.67 772.74 C2.66 772.39 4.09 776.22 5.32 778.36 C5.98 779.5 6.57 780.15
						 7.63 780.94 C8.22 781.39 8.95 781.87 9.44 781.99 C10.97 782.35 10.13 779.16 9.46 776.28 C9 774.31 8.63 772.49
						 8.84 772.05 C9.08 771.57 10 772.69 10.64 774.18 C11.72 776.72 11.96 780.34 13.36 782.67 C14.16 784 15.33
						 784.91 16.61 785.9 C17.3 786.43 18.01 786.99 18.51 787.21 C21.06 788.32 18.22 780.87 16.47 775.07 C14.8
						 769.56 14.12 765.54 15.67 766.8 C16.66 767.6 18.57 770.57 19.81 773.95 C20.49 775.82 20.98 777.81 21.21
						 778.33 C21.59 779.16 21.33 776.16 21.99 773.85 C22.37 772.55 23.03 771.48 23.71 771.11 C25.89 769.93 28.16
						 776.26 30.32 781.36 C32.26 785.94 34.11 789.53 34.2 788.84 C34.31 787.99 31.75 780.65 30.45 774.83 C29.17
						 769.16 29.09 764.94 30.42 766.69 C31.43 768.01 33.23 772.7 34.61 776.28 C35.33 778.15 35.93 779.72 36.34
						 781.68 C36.6 782.9 36.78 784.28 36.98 784.83 C37.57 786.45 38.34 781.12 37.12 777.2 C36.47 775.09 35.24
						 773.39 35.83 772 C36.2 771.12 37.31 770.37 38.22 770.23 C40.49 769.9 41.46 773.49 42.41 776.84 C42.94 778.73
						 43.47 780.54 44.03 781.44 C44.62 782.39 45.23 782.34 45.6 781.71 C46.67 779.87 45.5 773 44.55 768.05 C44.08
						 765.63 43.66 763.67 42.67 761.05 C42.07 759.46 41.26 757.64 41 757 C40.67 756.17 41.26 757.34 41.93 758.74
						 C44.08 763.25 47.03 770.2 48.94 775.98 C49.96 779.09 50.69 781.85 51.2 785.36 C51.49 787.3 51.71 789.46
						 52.94 790.76 C53.58 791.44 54.5 791.88 55.18 792 C58.25 792.52 56.61 786.51 54.44 780.46 C52.06 773.81 49.06
						 767.11 50.21 768.43 C50.88 769.19 52.92 772.6 54.63 775.27 C55.47 776.6 56.23 777.74 56.75 778.43 C57.33
						 779.2 57.6 779.41 57.61 778.83 C57.64 777.88 57.02 774.87 56.52 771.96 C56.26 770.45 56.04 768.97 56.15
						 768.49 C56.54 766.83 61.03 777.59 62.87 777.92" class="st8"/>
		</g>
		<g id="shape7-24" v:mID="7" v:groupContext="shape" transform="translate(52.92,-619.92)">
			<title>45 degree double</title>
			<desc>Window</desc>
			<v:userDefs>
				<v:ud v:nameU="visVersion" v:val="VT0(14):26"/>
			</v:userDefs>
			<v:textBlock v:margins="rect(4,4,4,4)"/>
			<v:textRect cx="14.04" cy="787.32" width="28.08" height="9.36"/>
			<path d="M0 787.32 L4.68 782.64 L4.68 785.73 L23.4 785.73 L23.4 782.64 L28.08 787.32 L23.4 792 L23.4 788.91 L4.68 788.91
						 L4.68 792 L0 787.32 Z" class="st1"/>
			<text x="7.22" y="788.52" class="st9" v:langID="1033"><v:paragraph v:horizAlign="1"/><v:tabList/>Window</text>		</g>
		<g id="shape8-27" v:mID="8" v:groupContext="shape" transform="translate(68.0868,-663.84)">
			<title>Cross</title>
			<v:userDefs>
				<v:ud v:nameU="ScaleFactor" v:val="VT0(1):26"/>
				<v:ud v:nameU="ControlX1" v:val="VT0(0):26"/>
				<v:ud v:nameU="ControlX2" v:val="VT0(0.034350393700787):1"/>
				<v:ud v:nameU="ControlY1" v:val="VT0(0.027645196850393):1"/>
				<v:ud v:nameU="ControlY2" v:val="VT0(0):26"/>
				<v:ud v:nameU="visVersion" v:val="VT0(14):26"/>
			</v:userDefs>
			<path d="M0 790.01 L2.47 790.01 L2.47 792 L2.47 790.01 L4.95 790.01 L2.47 790.01 L2.47 788.02 L2.47 790.01 L0 790.01 Z"
					class="st10"/>
		</g>
		<g id="shape10-29" v:mID="10" v:groupContext="shape" transform="translate(67.3668,-642.24)">
			<title>Cross.10</title>
			<v:userDefs>
				<v:ud v:nameU="ScaleFactor" v:val="VT0(1):26"/>
				<v:ud v:nameU="ControlX1" v:val="VT0(0):26"/>
				<v:ud v:nameU="ControlX2" v:val="VT0(0.034350393700787):1"/>
				<v:ud v:nameU="ControlY1" v:val="VT0(0.027645196850393):1"/>
				<v:ud v:nameU="ControlY2" v:val="VT0(0):26"/>
				<v:ud v:nameU="visVersion" v:val="VT0(14):26"/>
			</v:userDefs>
			<path d="M0 790.01 L2.47 790.01 L2.47 792 L2.47 790.01 L4.95 790.01 L2.47 790.01 L2.47 788.02 L2.47 790.01 L0 790.01 Z"
					class="st10"/>
		</g>
		<g id="shape13-31" v:mID="13" v:groupContext="shape" transform="translate(101.927,-629.45)">
			<title>Cross.13</title>
			<v:userDefs>
				<v:ud v:nameU="ScaleFactor" v:val="VT0(1):26"/>
				<v:ud v:nameU="ControlX1" v:val="VT0(0):26"/>
				<v:ud v:nameU="ControlX2" v:val="VT0(0.034350393700787):1"/>
				<v:ud v:nameU="ControlY1" v:val="VT0(0.027645196850393):1"/>
				<v:ud v:nameU="ControlY2" v:val="VT0(0):26"/>
				<v:ud v:nameU="visVersion" v:val="VT0(14):26"/>
			</v:userDefs>
			<path d="M0 790.01 L2.47 790.01 L2.47 792 L2.47 790.01 L4.95 790.01 L2.47 790.01 L2.47 788.02 L2.47 790.01 L0 790.01 Z"
					class="st10"/>
		</g>
		<g id="shape14-33" v:mID="14" v:groupContext="shape" transform="translate(95.4468,-667.61)">
			<title>Cross.14</title>
			<v:userDefs>
				<v:ud v:nameU="ScaleFactor" v:val="VT0(1):26"/>
				<v:ud v:nameU="ControlX1" v:val="VT0(0):26"/>
				<v:ud v:nameU="ControlX2" v:val="VT0(0.034350393700787):1"/>
				<v:ud v:nameU="ControlY1" v:val="VT0(0.027645196850393):1"/>
				<v:ud v:nameU="ControlY2" v:val="VT0(0):26"/>
				<v:ud v:nameU="visVersion" v:val="VT0(14):26"/>
			</v:userDefs>
			<path d="M0 790.01 L2.47 790.01 L2.47 792 L2.47 790.01 L4.95 790.01 L2.47 790.01 L2.47 788.02 L2.47 790.01 L0 790.01 Z"
					class="st10"/>
		</g>
		<g id="shape15-35" v:mID="15" v:groupContext="shape" transform="translate(39.6,-610.56)">
			<title>Sheet.15</title>
			<desc>Envelope Decimation</desc>
			<v:textBlock v:margins="rect(4,4,4,4)"/>
			<v:textRect cx="45" cy="788.4" width="90" height="7.2"/>
			<rect x="0" y="784.8" width="90" height="7.2" class="st6"/>
			<text x="5.3" y="791.1" class="st7" v:langID="1033"><v:paragraph v:horizAlign="1"/><v:tabList/>Envelope Decimation</text>		</g>
		<g id="shape11-38" v:mID="11" v:groupContext="shape" transform="translate(81,-619.92)">
			<title>45 degree double.11</title>
			<desc>Window</desc>
			<v:userDefs>
				<v:ud v:nameU="visVersion" v:val="VT0(14):26"/>
			</v:userDefs>
			<v:textBlock v:margins="rect(4,4,4,4)"/>
			<v:textRect cx="14.04" cy="787.32" width="28.08" height="9.36"/>
			<path d="M0 787.32 L4.68 782.64 L4.68 785.73 L23.4 785.73 L23.4 782.64 L28.08 787.32 L23.4 792 L23.4 788.91 L4.68 788.91
						 L4.68 792 L0 787.32 Z" class="st1"/>
			<text x="7.22" y="788.52" class="st9" v:langID="1033"><v:paragraph v:horizAlign="1"/><v:tabList/>Window</text>		</g>
		<g id="shape16-41" v:mID="16" v:groupContext="shape" transform="translate(36,-570.6)">
			<title>Sheet.16</title>
			<desc>gchapman</desc>
			<v:textBlock v:margins="rect(4,4,4,4)"/>
			<v:textRect cx="46.8" cy="779.4" width="93.6" height="25.2"/>
			<rect x="0" y="766.8" width="93.6" height="25.2" class="st6"/>
			<text x="27.78" y="782.1" class="st11" v:langID="1033"><v:paragraph v:horizAlign="1"/><v:tabList/>gchapman</text>		</g>
	</g>
</svg>
