<?xml version="1.0" encoding="UTF-8" standalone="no"?>
<!DOCTYPE svg PUBLIC "-//W3C//DTD SVG 1.0//EN" "http://www.w3.org/TR/2001/REC-SVG-20010904/DTD/svg10.dtd">
<!-- Generated by Microsoft Visio 11.0, SVG Export, v1.0 Threads.svg Threads -->
<svg xmlns="http://www.w3.org/2000/svg" xmlns:xlink="http://www.w3.org/1999/xlink" xmlns:ev="http://www.w3.org/2001/xml-events"
		xmlns:v="http://schemas.microsoft.com/visio/2003/SVGExtensions/" width="8.5in" height="5in" viewBox="0 70 612 200"
		xml:space="preserve" color-interpolation-filters="sRGB" class="st16">
	<v:documentProperties v:langID="1033" v:viewMarkup="false">
		<v:userDefs>
			<v:ud v:nameU="msvNoAutoConnect" v:val="VT0(1):26"/>
			<v:ud v:nameU="msvNoApplyDataGraphicAfterLink" v:val="VT0(1):5"/>
			<v:ud v:nameU="msvNoSubprocess" v:prompt="" v:val="VT0(1):26"/>
		</v:userDefs>
	</v:documentProperties>

	<style type="text/css">
	<![CDATA[
		.st1 {fill:#f2dcda;fill-opacity:0.55;stroke:#000000;stroke-dasharray:1.68,1.2;stroke-linecap:round;stroke-linejoin:round;stroke-width:0.24}
		.st2 {fill:#000000;font-family:Calibri;font-size:0.833336em}
		.st3 {font-size:1em}
		.st4 {fill:#cdcdcd;font-family:Calibri;font-size:3em;font-weight:bold}
		.st5 {fill:#e8eef7;fill-opacity:0.55;stroke:#000000;stroke-linecap:round;stroke-linejoin:round;stroke-width:0.24}
		.st6 {fill:#ebf1df;fill-opacity:0.55;stroke:#000000;stroke-linecap:round;stroke-linejoin:round;stroke-width:0.24}
		.st7 {fill:#eeeaf2;stroke:#000000;stroke-linecap:round;stroke-linejoin:round;stroke-width:0.24}
		.st8 {fill:#000000;font-family:Calibri;font-size:0.666664em;font-weight:bold}
		.st9 {fill:#e8eef7;stroke:#000000;stroke-linecap:round;stroke-linejoin:round;stroke-width:0.24}
		.st10 {fill:#000000;font-family:Calibri;font-size:0.499992em}
		.st11 {fill:none;stroke:#92cddc;stroke-linecap:round;stroke-linejoin:round;stroke-opacity:0.85;stroke-width:20}
		.st12 {fill:#f9c499;stroke:#000000;stroke-linecap:round;stroke-linejoin:round;stroke-width:0.24}
		.st13 {fill:#000000;font-family:Calibri;font-size:0.666664em}
		.st14 {fill:none;stroke:none;stroke-linecap:round;stroke-linejoin:round;stroke-width:0.75}
		.st15 {fill:#000000;font-family:Calibri;font-size:0.75em}
		.st16 {fill:none;fill-rule:evenodd;font-size:12px;overflow:visible;stroke-linecap:square;stroke-miterlimit:3}
	]]>
	</style>

	<g v:mID="6" v:index="5" v:groupContext="foregroundPage">
		<v:userDefs>
			<v:ud v:nameU="UMLPageGUID" v:prompt="" v:val="VT14({527CB1AA-290D-42A8-BC8F-E15AFEBD3718}):41"/>
		</v:userDefs>
		<title>Threads</title>
		<v:pageProperties v:drawingScale="1" v:pageScale="1" v:drawingUnits="0" v:shadowOffsetX="9" v:shadowOffsetY="-9"/>
		<v:layer v:name="Connector" v:index="0"/>
		<g id="shape13-1" v:mID="13" v:groupContext="shape" transform="translate(228.161,-496.8)">
			<title>Ellipse.13</title>
			<desc>Data Update (optional)</desc>
			<v:userDefs>
				<v:ud v:nameU="visVersion" v:val="VT0(14):26"/>
			</v:userDefs>
			<v:textBlock v:margins="rect(4,4,4,4)" v:tabSpace="42.5197" v:verticalAlign="2"/>
			<v:textRect cx="77.4" cy="697.313" width="135.46" height="165.702"/>
			<path d="M0 697.31 A77.4 94.6866 0 0 1 154.8 697.31 A77.4 94.6866 0 0 1 0 697.31 Z" class="st1"/>
			<text x="51.71" y="761.16" class="st2" v:langID="1033"><v:paragraph v:horizAlign="1"/><v:tabList/>Data Update <v:newlineChar/><tspan
						x="57.48" dy="1.2em" class="st3">(</tspan>optional)</text>		</g>
		<g id="shape2-7" v:mID="2" v:groupContext="shape" transform="translate(87.7606,-586.394)">
			<title>Ellipse</title>
			<desc>Main</desc>
			<v:userDefs>
				<v:ud v:nameU="visVersion" v:val="VT0(14):26"/>
			</v:userDefs>
			<v:textBlock v:margins="rect(4,4,4,4)" v:tabSpace="42.5197" v:verticalAlign="0"/>
			<v:textRect cx="136.12" cy="701.254" width="238.21" height="158.806"/>
			<path d="M0 701.25 A136.12 90.7465 0 0 1 272.24 701.25 A136.12 90.7465 0 1 1 -0 701.25 Z" class="st5"/>
			<text x="125.68" y="634.85" class="st2" v:langID="1033"><v:paragraph v:horizAlign="1"/><v:tabList/>Main</text>		</g>
		<g id="shape4-10" v:mID="4" v:groupContext="shape" transform="translate(246.161,-586.394)">
			<title>Ellipse.4</title>
			<desc>Render Loop</desc>
			<v:userDefs>
				<v:ud v:nameU="visVersion" v:val="VT0(14):26"/>
			</v:userDefs>
			<v:textBlock v:margins="rect(4,4,4,4)" v:tabSpace="42.5197" v:verticalAlign="0"/>
			<v:textRect cx="136.12" cy="701.254" width="238.21" height="158.806"/>
			<path d="M0 701.25 A136.12 90.7465 0 0 1 272.24 701.25 A136.12 90.7465 0 1 1 -0 701.25 Z" class="st6"/>
			<text x="110.3" y="634.85" class="st2" v:langID="1033"><v:paragraph v:horizAlign="1"/><v:tabList/>Render Loop</text>		</g>
		<g id="group10-13" transform="translate(271.814,-619.107)" v:mID="10" v:groupContext="group">
			<title>Sheet.10</title>
			<g id="shape7-14" v:mID="7" v:groupContext="shape">
				<title>Rounded rectangle.7</title>
				<desc>Model</desc>
				<v:userDefs>
					<v:ud v:nameU="visVersion" v:val="VT0(14):26"/>
				</v:userDefs>
				<v:textBlock v:margins="rect(4,4,4,4)" v:tabSpace="42.5197" v:verticalAlign="0"/>
				<v:textRect cx="31.9465" cy="759.86" width="63.9" height="64.2798"/>
				<path d="M49.72 792 A14.1733 14.1733 -180 0 0 63.89 777.83 L63.89 741.89 A14.1733 14.1733 -180 0 0 49.72 727.72 L14.17
							 727.72 A14.1733 14.1733 -180 0 0 0 741.89 L0 777.83 A14.1733 14.1733 -180 0 0 14.17 792 L49.72 792 Z"
						class="st7"/>
				<text x="21.16" y="738.92" class="st8" v:langID="1033"><v:paragraph v:horizAlign="1"/><v:tabList/>Model</text>			</g>
			<g id="shape5-17" v:mID="5" v:groupContext="shape" transform="translate(12.7465,-36.72)">
				<title>Rectangle</title>
				<desc>World</desc>
				<v:userDefs>
					<v:ud v:nameU="visVersion" v:val="VT0(14):26"/>
				</v:userDefs>
				<v:textBlock v:margins="rect(4,4,4,4)" v:tabSpace="42.5197" v:verticalAlign="0"/>
				<v:textRect cx="19.2" cy="784.8" width="38.41" height="14.4"/>
				<rect x="0" y="777.6" width="38.4" height="14.4" class="st9"/>
				<text x="11.64" y="787" class="st10" v:langID="1033"><v:paragraph v:horizAlign="1"/><v:tabList/>World</text>			</g>
			<g id="shape8-20" v:mID="8" v:groupContext="shape" transform="translate(8.42646,-21.24)">
				<title>Rectangle.8</title>
				<desc>Data Lines</desc>
				<v:userDefs>
					<v:ud v:nameU="visVersion" v:val="VT0(14):26"/>
				</v:userDefs>
				<v:textBlock v:margins="rect(4,4,4,4)" v:tabSpace="42.5197" v:verticalAlign="0"/>
				<v:textRect cx="24.36" cy="784.8" width="48.73" height="14.4"/>
				<rect x="0" y="777.6" width="48.72" height="14.4" class="st9"/>
				<text x="11.77" y="787" class="st10" v:langID="1033"><v:paragraph v:horizAlign="1"/><v:tabList/>Data Lines</text>			</g>
			<g id="shape9-23" v:mID="9" v:groupContext="shape" transform="translate(8.42646,-5.76)">
				<title>Rectangle.9</title>
				<desc>Grid</desc>
				<v:userDefs>
					<v:ud v:nameU="visVersion" v:val="VT0(14):26"/>
				</v:userDefs>
				<v:textBlock v:margins="rect(4,4,4,4)" v:tabSpace="42.5197" v:verticalAlign="0"/>
				<v:textRect cx="24.36" cy="784.8" width="48.73" height="14.4"/>
				<rect x="0" y="777.6" width="48.72" height="14.4" class="st9"/>
				<text x="19.16" y="787" class="st10" v:langID="1033"><v:paragraph v:horizAlign="1"/><v:tabList/>Grid</text>			</g>
		</g>
		<g id="group11-26" transform="translate(271.814,-686.847)" v:mID="11" v:groupContext="group">
			<title>Sheet.11</title>
			<g id="shape6-27" v:mID="6" v:groupContext="shape">
				<title>Rounded rectangle</title>
				<desc>View</desc>
				<v:userDefs>
					<v:ud v:nameU="visVersion" v:val="VT0(14):26"/>
				</v:userDefs>
				<v:textBlock v:margins="rect(4,4,4,4)" v:tabSpace="42.5197" v:verticalAlign="0"/>
				<v:textRect cx="31.9465" cy="768.04" width="63.9" height="47.9197"/>
				<path d="M49.72 792 A14.1733 14.1733 -180 0 0 63.89 777.83 L63.89 758.25 A14.1733 14.1733 -180 0 0 49.72 744.08 L14.17
							 744.08 A14.1733 14.1733 -180 0 0 -0 758.25 L0 777.83 A14.1733 14.1733 -180 0 0 14.17 792 L49.72 792
							 Z" class="st7"/>
				<text x="23.6" y="755.28" class="st8" v:langID="1033"><v:paragraph v:horizAlign="1"/><v:tabList/>View</text>			</g>
			<g id="shape3-30" v:mID="3" v:groupContext="shape" transform="translate(19.08,-5.13354)">
				<title>Square</title>
				<desc>View Port</desc>
				<v:userDefs>
					<v:ud v:nameU="visVersion" v:val="VT0(14):26"/>
				</v:userDefs>
				<v:textBlock v:margins="rect(4,4,4,4)" v:tabSpace="42.5197"/>
				<v:textRect cx="12.8665" cy="779.134" width="25.74" height="25.7329"/>
				<rect x="0" y="766.267" width="25.7329" height="25.7329" class="st9"/>
				<text x="6.84" y="777.33" class="st10" v:langID="1033"><v:paragraph v:horizAlign="1"/><v:tabList/>View <tspan
							x="7.68" dy="1.2em" class="st3">Port</tspan></text>			</g>
		</g>
		<g id="shape12-34" v:mID="12" v:groupContext="shape" transform="translate(246.161,-600.789)">
			<title>Ellipse.12</title>
			<desc>Presenter</desc>
			<v:userDefs>
				<v:ud v:nameU="visVersion" v:val="VT0(14):26"/>
			</v:userDefs>
			<v:textBlock v:margins="rect(0,4,4,4)" v:tabSpace="42.5197" v:verticalAlign="0"/>
			<v:textRect cx="57.6" cy="715.651" width="100.8" height="133.61"/>
			<path d="M0 715.65 A57.6 76.3488 0 1 1 115.2 715.65 A57.6 76.3488 0 1 1 -0 715.65 Z" class="st11"/>
			<text x="11.2" y="656.05" class="st8" v:langID="1033"><v:paragraph/><v:tabList/>Presenter</text>		</g>
		<g id="shape14-37" v:mID="14" v:groupContext="shape" transform="translate(479.988,-681.324) rotate(14.2811) scale(-1,1)">
			<title>60 degree single</title>
			<desc>User pan,scale</desc>
			<v:userDefs>
				<v:ud v:nameU="visVersion" v:val="VT0(14):26"/>
			</v:userDefs>
			<v:textBlock v:margins="rect(4,4,4,4)" v:verticalAlign="0"/>
			<v:textRect cx="61.2942" cy="787.369" width="122.59" height="9.26104"/>
			<path d="M0 787.37 L2.67 782.74 L2.67 785.8 L122.59 785.8 L122.59 788.94 L2.67 788.94 L2.67 792 L0 787.37 Z"
					class="st12"/>
			<text x="-84.91" y="793.94" transform="scale(-1,1)" class="st13" v:langID="1033"><v:paragraph v:horizAlign="1"/><v:tabList/>User pan,scale</text>		</g>
		<g id="shape15-40" v:mID="15" v:groupContext="shape" transform="translate(471.272,-635.215) rotate(14.7083) scale(-1,1)">
			<title>60 degree single.15</title>
			<desc>User settings</desc>
			<v:userDefs>
				<v:ud v:nameU="visVersion" v:val="VT0(14):26"/>
			</v:userDefs>
			<v:textBlock v:margins="rect(4,4,4,4)" v:verticalAlign="0"/>
			<v:textRect cx="59.5514" cy="787.369" width="119.11" height="9.26104"/>
			<path d="M0 787.37 L2.67 782.74 L2.67 785.8 L119.1 785.8 L119.1 788.94 L2.67 788.94 L2.67 792 L0 787.37 Z" class="st12"/>
			<text x="-80.67" y="793.94" transform="scale(-1,1)" class="st13" v:langID="1033"><v:paragraph v:horizAlign="1"/><v:tabList/>User settings</text>		</g>
		<g id="shape16-43" v:mID="16" v:groupContext="shape" transform="translate(548.01,835.877) rotate(-16.6992) scale(1,-1)">
			<title>60 degree single.16</title>
			<desc>Animation update: e.g. tap zoom, fling</desc>
			<v:userDefs>
				<v:ud v:nameU="visVersion" v:val="VT0(14):26"/>
			</v:userDefs>
			<v:textBlock v:margins="rect(4,4,4,4)" v:verticalAlign="0"/>
			<v:textRect cx="56.3777" cy="787.369" width="112.76" height="9.26104"/>
			<path d="M0 787.37 L2.67 782.74 L2.67 785.8 L112.76 785.8 L112.76 788.94 L2.67 788.94 L2.67 792 L0 787.37 Z"
					class="st12"/>
			<text x="12.88" y="-780.8" transform="scale(1,-1)" class="st13" v:langID="1033"><v:paragraph v:horizAlign="1"/><v:tabList/>Animation update: e.g. tap <tspan
						x="38.44" dy="1.2em" class="st3">zoom</tspan>, fling</text>		</g>
		<g id="shape17-47" v:mID="17" v:groupContext="shape" transform="translate(253.745,-657.966) rotate(-11.3099) scale(-1,1)">
			<title>60 degree single.17</title>
			<desc>Render</desc>
			<v:userDefs>
				<v:ud v:nameU="visVersion" v:val="VT0(14):26"/>
			</v:userDefs>
			<v:textBlock v:margins="rect(4,4,4,4)" v:verticalAlign="0"/>
			<v:textRect cx="36.7129" cy="787.369" width="73.43" height="9.26104"/>
			<path d="M0 787.37 L2.67 782.74 L2.67 785.8 L73.43 785.8 L73.43 788.94 L2.67 788.94 L2.67 792 L0 787.37 Z" class="st12"/>
			<text x="-48.46" y="793.94" transform="scale(-1,1)" class="st13" v:langID="1033"><v:paragraph v:horizAlign="1"/><v:tabList/>Render</text>		</g>
		<g id="shape18-50" v:mID="18" v:groupContext="shape" transform="translate(537.603,-673.343) rotate(9.46232) scale(-1,1)">
			<title>60 degree single.18</title>
			<desc>Render</desc>
			<v:userDefs>
				<v:ud v:nameU="visVersion" v:val="VT0(14):26"/>
			</v:userDefs>
			<v:textBlock v:margins="rect(4,4,4,4)" v:verticalAlign="0"/>
			<v:textRect cx="43.7959" cy="787.369" width="87.6" height="9.26104"/>
			<path d="M0 787.37 L2.67 782.74 L2.67 785.8 L87.59 785.8 L87.59 788.94 L2.67 788.94 L2.67 792 L0 787.37 Z" class="st12"/>
			<text x="-55.55" y="793.94" transform="scale(-1,1)" class="st13" v:langID="1033"><v:paragraph v:horizAlign="1"/><v:tabList/>Render</text>		</g>
		<g id="shape19-53" v:mID="19" v:groupContext="shape" transform="translate(202.381,926.035) rotate(9.78241) scale(1,-1)">
			<title>60 degree single.19</title>
			<desc>Animation update: e.g. Grid change, max hold fall</desc>
			<v:userDefs>
				<v:ud v:nameU="visVersion" v:val="VT0(14):26"/>
			</v:userDefs>
			<v:textBlock v:margins="rect(4,4,4,4)" v:verticalAlign="0"/>
			<v:textRect cx="52.9702" cy="787.369" width="105.95" height="9.26104"/>
			<path d="M0 787.37 L2.67 782.74 L2.67 785.8 L105.94 785.8 L105.94 788.94 L2.67 788.94 L2.67 792 L0 787.37 Z"
					class="st12"/>
			<text x="7.89" y="-780.8" transform="scale(1,-1)" class="st13" v:langID="1033"><v:paragraph v:horizAlign="1"/><v:tabList/>Animation update: e.g. Grid <tspan
						x="18.53" dy="1.2em" class="st3">change</tspan>, max hold fall</text>		</g>
		<g id="shape20-57" v:mID="20" v:groupContext="shape" transform="translate(168.28,-633.783) rotate(-8.01618) scale(-1,1)">
			<title>60 degree single.20</title>
			<desc>Data update</desc>
			<v:userDefs>
				<v:ud v:nameU="visVersion" v:val="VT0(14):26"/>
			</v:userDefs>
			<v:textBlock v:margins="rect(4,4,4,4)" v:verticalAlign="0"/>
			<v:textRect cx="59.0167" cy="787.369" width="118.04" height="9.26104"/>
			<path d="M0 787.37 L2.67 782.74 L2.67 785.8 L118.03 785.8 L118.03 788.94 L2.67 788.94 L2.67 792 L0 787.37 Z"
					class="st12"/>
			<text x="-79.1" y="793.94" transform="scale(-1,1)" class="st13" v:langID="1033"><v:paragraph v:horizAlign="1"/><v:tabList/>Data update</text>		</g>
		<g id="shape21-60" v:mID="21" v:groupContext="shape" transform="translate(-474.434,-69.6301) rotate(-73.7398) scale(-1,1)">
			<title>60 degree single.21</title>
			<desc>Data update</desc>
			<v:userDefs>
				<v:ud v:nameU="visVersion" v:val="VT0(14):26"/>
			</v:userDefs>
			<v:textBlock v:margins="rect(4,4,4,4)" v:verticalAlign="0"/>
			<v:textRect cx="45" cy="787.369" width="90" height="9.26104"/>
			<path d="M0 787.37 L2.67 782.74 L2.67 785.8 L90 785.8 L90 788.94 L2.67 788.94 L2.67 792 L0 787.37 Z" class="st12"/>
			<text x="-65.09" y="793.94" transform="scale(-1,1)" class="st13" v:langID="1033"><v:paragraph v:horizAlign="1"/><v:tabList/>Data update</text>		</g>
		<g id="shape22-63" v:mID="22" v:groupContext="shape" transform="translate(109.361,-537.487)">
			<title>Sheet.22</title>
			<desc>gchapman</desc>
			<v:textBlock v:margins="rect(4,4,4,4)"/>
			<v:textRect cx="46.8" cy="779.4" width="93.6" height="25.2"/>
			<rect x="0" y="766.8" width="93.6" height="25.2" class="st14"/>
			<text x="27.78" y="782.1" class="st15" v:langID="1033"><v:paragraph v:horizAlign="1"/><v:tabList/>gchapman</text>		</g>
	</g>
</svg>
